package com.britecore.rules.quoting;

import com.britecore.rules.quoting.Item;
import com.britecore.rules.common.namespace.Namespace;
import com.britecore.rules.common.model.parameter.Parameter;

/**
“Auto Loan Lease” is only available when both Comprehensive & Collision is written on the auto
**/

rule "show Auto Loan Lease"
when
    Parameter(key == "ITEM_AUTO_LOAN_LEASE", autoLoanLease: value#String)
    Parameter(key == "ITEM_COMPREHENSIVE", $comprehensive: value#String)
    Parameter(key == "ITEM_COLLISION", $collision: value#String)

    Namespace(type == "Business Line", this namespaceResolves ["line.pa.privatePassengerAutos"])
	Item(name == $comprehensive)
	Item(name == $collision)
then
	insert(new FormAction("showField").addParameter("field", autoLoanLease).addParameter("type", "item"));
end

rule "hide Auto Loan Lease"
salience -1
when
    Parameter(key == "ITEM_AUTO_LOAN_LEASE", autoLoanLease: value#String)
    Parameter(key == "ITEM_COMPREHENSIVE", $comprehensive: value#String)
    Parameter(key == "ITEM_COLLISION", $collision: value#String)

    Namespace(type == "Business Line", this namespaceResolves ["line.pa.privatePassengerAutos"])
	not (Item(name == $comprehensive) and Item(name == $collision))
then
	insert(new FormAction("hideField").addParameter("field", autoLoanLease).addParameter("type", "item"));
end