package com.britecore.rules.quoting;

import com.britecore.rules.common.namespace.Namespace;

import com.britecore.rules.common.model.Action;
import com.britecore.rules.common.model.ContextData;
import com.britecore.rules.common.helper.DateUtils;
import com.britecore.rules.quoting.helper.ContextDataHelper;

rule "insert fields"
when
	$contextData : ContextData()
	$f: Field() from ContextDataHelper.getFields($contextData)
then
	insert($f);
end

rule "insert items"
when
	$contextData : ContextData()
	$item: Item() from ContextDataHelper.getItems($contextData)
then
	insert($item);
end

rule "actions response"
when
    not (Action(type == "response"))
then
	insert(new Action("response"));
end

rule "build response"
salience -2
when
	$action: Action(type == "response", data['actions'] == null)
	$formActions: java.util.List() from collect (FormAction())
then
	$action.getData().put("actions", $formActions);
	update($action);
end

query Actions()
	$action: Action()
end