package com.britecore.rules.quoting.namespace;

import com.britecore.rules.common.model.ContextData;
import com.britecore.rules.common.namespace.Namespace;

rule "Resolve Business Line Namespace - Complete Line"
agenda-group "NAMESPACE-RESOLUTION"
when
    ContextData($lineData: context["line"], $quoteData: context["quote"])
    $lineCode: Object() from $lineData.get("code")
    $quoteType: java.util.Map() from (java.util.Map) $quoteData.get("type")
    $riskGroup: Object() from $quoteType.get("name")
then
    insert(new Namespace("Business Line", "line." + $lineCode.toString() + "." + $riskGroup));
end

rule "Resolve Business Line - Empty"
agenda-group "NAMESPACE-RESOLUTION"
when
    ContextData($lineData: context["line"])
    not Object() from $lineData.get("code")
then
    insert(new Namespace("Business Line", "line"));
end