package com.britecore.rules.quoting;

import com.britecore.rules.common.namespace.Namespace;
import com.britecore.rules.common.model.parameter.Parameter;

/**
“Towing and Labor Costs” is only available when Comprehensive is written for the auto
**/

rule "show Towing and Labor Costs"
when
    Parameter(key == "ITEM_TOWING_AND_LABOR_COSTS", $towingAndLabourCosts: value#String)
    Parameter(key == "ITEM_COMPREHENSIVE", $comprehensive: value#String)

    Namespace(type == "Business Line", this namespaceResolves ["line.pa.privatePassengerAutos","line.pa.motorHomes"])
	Item(name == $comprehensive)
then
	insert(new FormAction("showField").addParameter("field", $towingAndLabourCosts).addParameter("type", "item"));
end

rule "hide Towing and Labor Costs"
salience -1
when
    Parameter(key == "ITEM_TOWING_AND_LABOR_COSTS", $towingAndLabourCosts: value#String)
    Parameter(key == "ITEM_COMPREHENSIVE", $comprehensive: value#String)

    Namespace(type == "Business Line", this namespaceResolves ["line.pa.privatePassengerAutos","line.pa.motorHomes"])
	not Item(name == $comprehensive)
then
	insert(new FormAction("hideField").addParameter("field", $towingAndLabourCosts).addParameter("type", "item"));
end
